<?xml version="1.0" encoding="utf-8"?>
<!-- Generator: Adobe Illustrator 21.0.0, SVG Export Plug-In . SVG Version: 6.00 Build 0)  -->
<svg version="1.1" id="Layer_1" xmlns="http://www.w3.org/2000/svg" xmlns:xlink="http://www.w3.org/1999/xlink" x="0px" y="0px"
	 viewBox="0 0 66 61" style="enable-background:new 0 0 66 61;" xml:space="preserve">
<style type="text/css">
  .st0{fill: #e3226c;}
</style>
<g>
	<rect x="19" y="57" class="st0" width="28" height="4"/>
	<rect x="1" y="49" class="st0" width="64" height="4"/>
	<rect x="31" class="st0" width="4" height="10"/>
	<rect x="11.2" y="8.2" transform="matrix(0.7071 -0.7072 0.7072 0.7071 -5.4679 13.2031)" class="st0" width="4" height="10"/>
	<rect x="47.8" y="11.2" transform="matrix(0.7071 -0.7071 0.7071 0.7071 6.1305 41.2002)" class="st0" width="10" height="4"/>
	<rect x="56" y="31" class="st0" width="10" height="4"/>
	<rect y="31" class="st0" width="10" height="4"/>
	<path class="st0" d="M19,44.3l0.6,0.7h26.9l0.6-0.7c2.6-3.2,4-7.2,4-11.3c0-9.9-8.1-18-18-18s-18,8.1-18,18
		C15,37.1,16.4,41.1,19,44.3z"/>
</g>
</svg>
